00;Доброй ночи
01;Доброй ночи
02;Доброй ночи
03;Доброй ночи
04;Доброй ночи
05;Доброй ночи
06;Доброе утро
07;Доброе утро
08;Доброе утро
09;Доброе утро
10;Доброе утро
11;Доброе утро
12;Добрый день
13;Добрый день
14;Добрый день
15;Добрый день
16;Добрый день
17;Добрый вечер
18;Добрый вечер
19;Добрый вечер
20;Добрый вечер
21;Добрый вечер
22;Доброй ночи
23;Доброй ночи

