1;2;3;разносторонний
1;3;2;разносторонний
2;1;3;разносторонний
3;2;1;разносторонний
3;1;2;разносторонний
2;2;2;равносторонний
4;4;4;равносторонний
6;6;6;равносторонний
330;330;330;равносторонний
666;666;666;равносторонний
999;999;999;равносторонний
